{
  "images": [
    {
      "scale": "1x",
      "idiom": "universal",
      "filename": "ad1.jpg"
    },
    {
      "scale": "2x",
      "idiom": "universal",
      "filename": "ad11.jpg"
    },
    {
      "scale": "3x",
      "idiom": "universal",
      "filename": "ad12.jpg"
    }
  ],
  "properties": {},
  "info": {
    "version": 1,
    "author": ""
  }
}