{
  "images": [
    {
      "scale": "1x",
      "idiom": "universal",
      "filename": "medical_services.png"
    },
    {
      "scale": "2x",
      "idiom": "universal",
      "filename": "medical_services1.png"
    },
    {
      "scale": "3x",
      "idiom": "universal",
      "filename": "medical_services2.png"
    }
  ],
  "properties": {},
  "info": {
    "version": 1,
    "author": ""
  }
}